{
    "defaultSeverity": "error",
    "extends": [
        "tslint:recommended"
    ],
    "jsRules": {},
    "rules": {
        "trailing-comma": [ false ],
        "no-console": [true, "log"],
        "only-arrow-functions": false,
        "max-classes-per-file": false,
        "no-empty-interface": false,
        "no-empty": false
    },
    "rulesDirectory": []
}